^E:\CHECKERS\CHECKERS\DEBUG\BOARD.OBJ|E:\CHECKERS\CHECKERS\DEBUG\CHECKERSLOGIC.OBJ|E:\CHECKERS\CHECKERS\DEBUG\COLOR.OBJ|E:\CHECKERS\CHECKERS\DEBUG\CUBE.OBJ|E:\CHECKERS\CHECKERS\DEBUG\CYLINDER.OBJ|E:\CHECKERS\CHECKERS\DEBUG\INIT.OBJ|E:\CHECKERS\CHECKERS\DEBUG\MAIN.OBJ|E:\CHECKERS\CHECKERS\DEBUG\POINT.OBJ|E:\CHECKERS\CHECKERS\DEBUG\ROTATE.OBJ
C:\PROGRAM FILES (X86)\WINDOWS KITS\8.1\LIB\WINV6.3\UM\X86\KERNEL32.LIB
C:\PROGRAM FILES (X86)\WINDOWS KITS\8.1\LIB\WINV6.3\UM\X86\USER32.LIB
C:\PROGRAM FILES (X86)\WINDOWS KITS\8.1\LIB\WINV6.3\UM\X86\GDI32.LIB
C:\PROGRAM FILES (X86)\WINDOWS KITS\8.1\LIB\WINV6.3\UM\X86\WINSPOOL.LIB
C:\PROGRAM FILES (X86)\WINDOWS KITS\8.1\LIB\WINV6.3\UM\X86\COMDLG32.LIB
C:\PROGRAM FILES (X86)\WINDOWS KITS\8.1\LIB\WINV6.3\UM\X86\ADVAPI32.LIB
C:\PROGRAM FILES (X86)\WINDOWS KITS\8.1\LIB\WINV6.3\UM\X86\SHELL32.LIB
C:\PROGRAM FILES (X86)\WINDOWS KITS\8.1\LIB\WINV6.3\UM\X86\OLE32.LIB
C:\PROGRAM FILES (X86)\WINDOWS KITS\8.1\LIB\WINV6.3\UM\X86\OLEAUT32.LIB
C:\PROGRAM FILES (X86)\WINDOWS KITS\8.1\LIB\WINV6.3\UM\X86\UUID.LIB
C:\PROGRAM FILES (X86)\WINDOWS KITS\8.1\LIB\WINV6.3\UM\X86\ODBC32.LIB
C:\PROGRAM FILES (X86)\WINDOWS KITS\8.1\LIB\WINV6.3\UM\X86\ODBCCP32.LIB
E:\CHECKERS\CHECKERS\DEBUG\BOARD.OBJ
E:\CHECKERS\CHECKERS\DEBUG\CHECKERSLOGIC.OBJ
E:\CHECKERS\CHECKERS\DEBUG\COLOR.OBJ
E:\CHECKERS\CHECKERS\DEBUG\CUBE.OBJ
E:\CHECKERS\CHECKERS\DEBUG\CYLINDER.OBJ
E:\CHECKERS\CHECKERS\DEBUG\INIT.OBJ
E:\CHECKERS\CHECKERS\DEBUG\MAIN.OBJ
E:\CHECKERS\CHECKERS\DEBUG\POINT.OBJ
E:\CHECKERS\CHECKERS\DEBUG\ROTATE.OBJ
C:\WINDOWS\SYSTEM32\TZRES.DLL
C:\WINDOWS\GLOBALIZATION\SORTING\SORTDEFAULT.NLS
C:\PROGRAM FILES (X86)\MICROSOFT VISUAL STUDIO 12.0\VC\LIB\MSVCPRTD.LIB
C:\PROGRAM FILES (X86)\MICROSOFT VISUAL STUDIO 12.0\VC\LIB\MSVCRTD.LIB
C:\PROGRAM FILES (X86)\MICROSOFT VISUAL STUDIO 12.0\VC\LIB\OLDNAMES.LIB
C:\PROGRAM FILES (X86)\WINDOWS KITS\8.1\LIB\WINV6.3\UM\X86\OPENGL32.LIB
C:\PROGRAM FILES (X86)\WINDOWS KITS\8.1\LIB\WINV6.3\UM\X86\GLU32.LIB
